{
  "cviceni": {
    "version": {
      "global": "<%= version %>",
      "content": 1
    },
    "katalog": [
      ""
    ],
    "language": "cs",
    "slug": "proc-se-shromazdili-rtjf",
    "nazev": "Proč se shromáždili?",
    "autor": [
      ""
    ],
    "klicovaSlova": {
      "rvp": [],
      "koncept": [],
      "b4": [],
      "historylab": []
    },
    "casovaOsa": {
      "roky": [],
      "epochy": [
        {
          "refId": "czech",
          "obdobi": []
        },
        {
          "refId": "world",
          "obdobi": []
        }
      ]
    },
    "anotace": {
      "ucitel": "Žáci zkoumají fotografii, která zachycuje pietní akt před rodným domem Julia Fučíka v období normalizace. Díky katalogizačnímu listu zaniklého Muzea dělnického hnutí mohou snímek zasadit do dobových souvislostí. Přemýšlejí o tom, jaký význam měl Fučíkův kult pro komunistickou ideologii a dobovou společnost.",
      "verejna": "Poznáte, co se děje na fotografii z roku 1982? Zkuste snímek důkladně prozkoumat, abyste vypátrali, proč se lidé na fotografii shromáždili."
    },
    "trvani": 30,
    "obtiznost": "",
    "funkce": [
      "lupa",
      "cteni",
      "text",
      "svg",
      "kresleni"
    ],
    "pdf": {
      "doporucenyPostup": "proc-se-shromazdili-rtjf.pdf"
    },
    "uvodniObrazek": "proc-se-shromazdili-rtjf/pic-00-1280w.jpg",
    "id": 88,
    "color": {
      "rgb": {
        "r": 132,
        "g": 134,
        "b": 137
      },
      "hsv": {
        "h": 216,
        "s": 3.65,
        "v": 53.73
      }
    }
  },
  "slajd": [
    {
      "zadani": {
        "hlavni": "Prohlédněte si fotografii.",
        "rozsirujici": ""
      },
      "napoveda": {
        "aktivity": [],
        "text": ""
      },
      "prameny": [
        "proc-se-shromazdili-rtjf/pic-00-1280w.jpg"
      ],
      "popisky": [
        "Praha, Duškova ulice č. p. 1041, 7. září 1982. Zdroj: Archiv Národního muzea"
      ]
    },
    {
      "class": [
        "half-slide-previous"
      ],
      "zadani": {
        "hlavni": "Označte na snímku prvky, které  vám pomohou určit, proč se lidé shromáždili.",
        "rozsirujici": ""
      },
      "napoveda": {
        "aktivity": [
          "svg"
        ],
        "text": "Tahem myši levým tlačítkem kreslíte do obrazu. Nakliknutím na nakreslený tvar pravým tlačítkem otevřete menu s nabídkou úkonů: změnit barvu tvaru, (T) doplnit textový komentář, (X) smazat nakliknutý objekt."
      },
      "svg": {
        "soubory": [
          {
            "id": "svg-1",
            "soubor": "proc-se-shromazdili-rtjf/pic-00-1280w.jpg",
            "funkce": [
              "text",
              "kresleni"
            ]
          }
        ]
      }
    },
    {
      "class": [
        "half-slide-active"
      ],
      "zadani": {
        "hlavni": "Co se děje na fotografii?",
        "rozsirujici": "Vyberte označení, které nejlépe vystihuje důvod shromáždění."
      },
      "napoveda": {
        "aktivity": [
          "vyber"
        ],
        "text": "Výběr provedete kliknutím na položku."
      },
      "vyber": {
        "id": "vyber-1",
        "nastaveni": {
          "layout": "vertikalni",
          "viceOdpovedi": false,
          "disableFeedback": true
        },
        "objekty": [
          {
            "medium": "text",
            "objekt": "oslava výročí"
          },
          {
            "medium": "text",
            "objekt": "státní svátek"
          },
          {
            "medium": "text",
            "objekt": "odhalování pomníku"
          },
          {
            "medium": "text",
            "objekt": "pohřeb"
          },
          {
            "medium": "text",
            "objekt": "vzpomínkový akt"
          },
          {
            "medium": "text",
            "objekt": "pionýrský slib"
          }
        ]
      }
    },
    {
      "class": [
        "half-slide-previous"
      ],
      "zadani": {
        "hlavni": "Prozkoumejte dobový popisek k fotografii.",
        "rozsirujici": "Hledejte informace, které osvětlí, proč se lidé shromáždili."
      },
      "napoveda": {
        "aktivity": [],
        "text": ""
      },
      "prameny": [
        "proc-se-shromazdili-rtjf/pic-01-1280w.jpg"
      ],
      "popisky": [
        "Katalogizační list Muzea dělnického hnutí v Praze. Zdroj: Archiv Národního muzea"
      ]
    },
    {
      "class": [
        "half-slide-active"
      ],
      "zadani": {
        "hlavni": "Zodpovězte otázku.",
        "rozsirujici": ""
      },
      "napoveda": {
        "aktivity": [
          "text"
        ],
        "text": "Do boxu pro text zapisujete odpověď na otázku, nebo jiný komentář (dle zadání)."
      },
      "uzivatelskyText": {
        "otazky": [
          {
            "id": "text-1",
            "zadani": "Proč se shromáždili?",
            "instrukce": "Myslím si, že…",
            "minDelka": 0,
            "maxDelka": 999
          }
        ]
      }
    }
  ]
}