{
  "cviceni": {
    "version": {
      "global": "<%= version %>",
      "content": 4
    },
    "katalog": [
      "test",
      "public"
    ],
    "language": "cs",
    "slug": "to-byla-slava",
    "nazev": "To byla sláva!",
    "autor": [
      "Pavla Sýkorová"
    ],
    "klicovaSlova": {
      "rvp": [
        "Československo 70. léta",
        "technika"
      ],
      "koncept": [
        "propaganda",
        "každodennost"
      ],
      "b4": [
        "dobové perspektivy"
      ],
      "historylab": [
        "hledáme klíčové detaily"
      ]
    },
    "casovaOsa": {
      "roky": [
        1974
      ],
      "epochy": [
        {
          "refId": "czech",
          "obdobi": [
            "normalizace"
          ]
        },
        {
          "refId": "world",
          "obdobi": []
        }
      ]
    },
    "anotace": {
      "ucitel": "V rámci cvičení si žáci poslechnou reportáž o zahájení provozu pražského metra v roce 1974. Šestiminutová reportáž je rozdělena do pěti částí, ke kterým žáci přiřazují dobové fotografie. Následně zkoumají zaměření jednotlivých částí reportáže a hledají odpověď na otázku, co znamenalo otevření metra pro různé zájmové skupiny (KSČ, posluchače rozhlasu, SSSR). Cvičení dokresluje běžný život v Praze v 70. letech 20. století.",
      "verejna": "Zaposlouchejte se do dobové reportáže Československého rozhlasu a oslavte zahájení provozu pražského metra. „Ukončete nástup, dveře se zavírají,” poprvé zaznělo v roce 1974. A byla to sláva. Co tato událost znamenala pro komunistickou stranu, běžné občany a představitele Sovětského svazu?"
    },
    "trvani": 45,
    "obtiznost": "střední",
    "funkce": [
      "lupa",
      "cteni",
      "text",
      "audio"
    ],
    "pdf": {
      "doporucenyPostup": "to-byla-slava.jpg"
    },
    "uvodniObrazek": "to-byla-slava/pic-03-1280w.jpg",
    "id": 34,
    "color": {
      "rgb": {
        "r": 66,
        "g": 66,
        "b": 66
      },
      "hsv": {
        "h": 0,
        "s": 0,
        "v": 25.88
      }
    }
  },
  "slajd": [
    {
      "class": "",
      "zadani": {
        "hlavni": "Poslechněte si nahrávku a prohlédněte si mapu.",
        "rozsirujici": "Otevření prvního úseku metra v Praze bylo z mnoha důvodů velkou a široce oslavovanou událostí. Některé by nás dnes možná překvapily. Co tehdy znamenalo otevření metra pro stranu a vládu, běžné občany a Sovětský svaz?"
      },
      "napoveda": {
        "aktivity": [
          "lupa",
          "audio"
        ],
        "text": ""
      },
      "media": {
        "nastaveni": {
          "vzhled": "normalni",
          "layout": "velka-galerie"
        },
        "soubory": [
          {
            "soubor": "to-byla-slava/audio-00.mp3",
            "nazev": "Otevření pražského metra",
            "popisek": "Jan Smolka: Jásejme, Pražané: Píseň z 22. kola Písniček pro Hvězdu. Zpívají Planety, hraje orch. Karla Vlacha. Rozhlasové noviny 9. května 1974. Zdroj: www.pribehrozhlasu.cz"
          }
        ],
        "galerie": [
          {
            "soubor": "to-byla-slava/pic-00-800w.gif",
            "popisek": "Zdroj: Lukasb1992 [CC BY-SA 4.0 (https://creativecommons.org/licenses/by-sa/4.0)]"
          }
        ]
      }
    },
    {
      "class": "",
      "zadani": {
        "hlavni": "Poslechněte si jednotlivé části nahrávky a přiřaďte k nim fotografie.",
        "rozsirujici": ""
      },
      "napoveda": {
        "aktivity": [
          "audio",
          "razeni"
        ],
        "text": "Kliknutím na fotografie a tahem myši přesuňte fotografii na požadovanou pozici mezi ostatní položky."
      },
      "media": {
        "nastaveni": {
          "layout": "horizontalni"
        },
        "soubory": [
          {
            "vzhled": "jednoduchy",
            "soubor": "to-byla-slava/audio-01.mp3",
            "label": "1. část",
            "nazev": "Otevření pražského metra"
          },
          {
            "vzhled": "jednoduchy",
            "soubor": "to-byla-slava/audio-02.mp3",
            "label": "2. část",
            "nazev": "Otevření pražského metra"
          },
          {
            "vzhled": "jednoduchy",
            "soubor": "to-byla-slava/audio-03.mp3",
            "label": "3. část",
            "nazev": "Otevření pražského metra"
          },
          {
            "vzhled": "jednoduchy",
            "soubor": "to-byla-slava/audio-04.mp3",
            "label": "4. část",
            "nazev": "Otevření pražského metra"
          },
          {
            "vzhled": "jednoduchy",
            "soubor": "to-byla-slava/audio-05.mp3",
            "label": "5. část",
            "nazev": "Otevření pražského metra"
          }
        ]
      },
      "razeni": {
        "id": "razeni-1",
        "zpetnaVazba": [
          {
            "podminka": 1,
            "text": "Opravdu? Poslechněte si ukázky ještě jednou.",
            "barva": "color-red"
          },
          {
            "podminka": 0,
            "text": "Výtečně. Došli jsme ke stejným závěrům.",
            "barva": "color-green"
          }
        ],
        "typ": "horizontalni",
        "objekty": [
          {
            "medium": "obrazek",
            "objekt": "to-byla-slava/pic-01-1280w.jpg",
            "popisek": "Zdroj: Archiv DP Praha",
            "spravnaOdpoved": "3"
          },
          {
            "medium": "obrazek",
            "objekt": "to-byla-slava/pic-02-1280w.jpg",
            "popisek": "Zdroj: Archiv DP Praha",
            "spravnaOdpoved": "2"
          },
          {
            "medium": "obrazek",
            "objekt": "to-byla-slava/pic-03-1280w.jpg",
            "popisek": "Zdroj: Archiv DP Praha",
            "spravnaOdpoved": "4"
          },
          {
            "medium": "obrazek",
            "objekt": "to-byla-slava/pic-04-1280w.jpg",
            "popisek": "Zdroj: Archiv DP Praha",
            "spravnaOdpoved": "1"
          },
          {
            "medium": "obrazek",
            "objekt": "to-byla-slava/pic-05-1280w.jpg",
            "popisek": "Zdroj: www.zateckecountry.cz",
            "spravnaOdpoved": "5"
          }
        ]
      }
    },
    {
      "class": [
        "half-slide-previous"
      ],
      "zadani": {
        "hlavni": "Co znamenalo otevření metra pro posluchače rádia, komunistickou stranu a Sovětský svaz?",
        "rozsirujici": "Vyberte ukázku, která vám nejlépe pomůže odpovědět na otázku."
      },
      "napoveda": {
        "aktivity": [
          "vyber",
          "text"
        ],
        "text": "Výběr provedete kliknutím na položku.<br>Do boxu pro text zapisujete odpověď na otázku, nebo jiný komentář (dle zadání)."
      },
      "vyber": {
        "id": "vyber-1",
        "nastaveni": {
          "layout": "horizontalni",
          "viceOdpovedi": false,
          "disableFeedback": true
        },
        "objekty": [
          {
            "vzhled": "jednoduchy",
            "objekt": "to-byla-slava/audio-01.mp3",
            "label": "1. část",
            "nazev": "Otevření pražského metra"
          },
          {
            "vzhled": "jednoduchy",
            "objekt": "to-byla-slava/audio-02.mp3",
            "label": "2. část",
            "nazev": "Otevření pražského metra"
          },
          {
            "vzhled": "jednoduchy",
            "objekt": "to-byla-slava/audio-03.mp3",
            "label": "3. část",
            "nazev": "Otevření pražského metra"
          },
          {
            "vzhled": "jednoduchy",
            "objekt": "to-byla-slava/audio-04.mp3",
            "label": "4. část",
            "nazev": "Otevření pražského metra"
          },
          {
            "vzhled": "jednoduchy",
            "objekt": "to-byla-slava/audio-05.mp3",
            "label": "5. část",
            "nazev": "Otevření pražského metra"
          }
        ]
      },
      "uzivatelskyText": {
        "otazky": [
          {
            "id": "text-1",
            "zadani": " Stručně charakterizujte, co se ve vámi vybrané ukázce děje, jaký má účel a proč byla do reportáže zařazena.",
            "instrukce": "Myslím, že...",
            "minDelka": 2,
            "maxDelka": 400,
            "vyska": 4
          }
        ]
      }
    },
    {
      "class": [
        "half-slide-active"
      ],
      "zadani": {
        "hlavni": "Proč oslavovali otevření metra?",
        "rozsirujici": "Co znamenalo otevření metra pro:"
      },
      "napoveda": {
        "aktivity": [
          "text"
        ],
        "text": ""
      },
      "uzivatelskyText": {
        "otazky": [
          {
            "id": "text-2",
            "zadani": "komunistickou stranu",
            "instrukce": "Myslím si, že…",
            "minDelka": 2,
            "maxDelka": 400,
            "vyska": 3
          },
          {
            "id": "text-3",
            "zadani": "posluchače rádia",
            "instrukce": "Myslím si, že…",
            "minDelka": 2,
            "maxDelka": 400,
            "vyska": 3
          },
          {
            "id": "text-4",
            "zadani": "Sovětský svaz",
            "instrukce": "Myslím si, že…",
            "minDelka": 2,
            "maxDelka": 400,
            "vyska": 3
          }
        ]
      }
    }
  ]
}